{
    "client": "Thunder Client",
    "collectionName": "user-management",
    "dateExported": "2023-08-26T17:04:22.236Z",
    "version": "1.1",
    "folders": [],
    "requests": [
        {
            "_id": "81f90e74-0db7-4174-bfeb-e22d9a84c4ef",
            "colId": "163da6f6-a124-4678-811f-74092eb321ad",
            "containerId": "",
            "name": "get by id",
            "url": "http://localhost:8080/users/1",
            "method": "GET",
            "sortNum": 10000,
            "created": "2023-08-26T16:59:18.792Z",
            "modified": "2023-08-26T16:59:18.792Z",
            "headers": [],
            "params": [],
            "tests": []
        },
        {
            "_id": "75fbd4d2-3c10-418a-8598-39e739bee482",
            "colId": "163da6f6-a124-4678-811f-74092eb321ad",
            "containerId": "",
            "name": "get all",
            "url": "http://localhost:8080/users",
            "method": "GET",
            "sortNum": 20000,
            "created": "2023-08-26T16:59:45.102Z",
            "modified": "2023-08-26T16:59:45.102Z",
            "headers": [],
            "params": [],
            "tests": []
        },
        {
            "_id": "eee03e34-98e5-4925-a336-7b87e6c97707",
            "colId": "163da6f6-a124-4678-811f-74092eb321ad",
            "containerId": "",
            "name": "delete by id",
            "url": "http://localhost:8080/users/1",
            "method": "DELETE",
            "sortNum": 30000,
            "created": "2023-08-26T16:59:52.631Z",
            "modified": "2023-08-26T16:59:52.631Z",
            "headers": [],
            "params": [],
            "tests": []
        },
        {
            "_id": "486a6032-bbed-48df-9faf-f1c72c2cd780",
            "colId": "163da6f6-a124-4678-811f-74092eb321ad",
            "containerId": "",
            "name": "update by id",
            "url": "http://localhost:8080/users/1",
            "method": "PUT",
            "sortNum": 40000,
            "created": "2023-08-26T16:59:57.519Z",
            "modified": "2023-08-26T16:59:57.519Z",
            "headers": [],
            "params": [],
            "body": {
                "type": "json",
                "raw": "{\n  \"name\": \"mehmet\",\n  \"email\": \"mehmet@emial.com\"\n}",
                "form": []
            },
            "tests": []
        },
        {
            "_id": "81be054d-452a-4a06-a983-bf87edcf1753",
            "colId": "163da6f6-a124-4678-811f-74092eb321ad",
            "containerId": "",
            "name": "create",
            "url": "http://localhost:8080/users",
            "method": "POST",
            "sortNum": 50000,
            "created": "2023-08-26T17:00:01.833Z",
            "modified": "2023-08-26T17:00:01.833Z",
            "headers": [],
            "params": [],
            "body": {
                "type": "json",
                "raw": "{\n  \"name\": \"mehmet\",\n  \"email\": \"mehmet@email.com\"\n}",
                "form": []
            },
            "tests": []
        }
    ]
}